<?xml version="1.0" encoding="UTF-8"?>
<!DOCTYPE svg PUBLIC "-//W3C//DTD SVG 1.1//EN" "http://www.w3.org/Graphics/SVG/1.1/DTD/svg11.dtd">
<!-- Creator: CorelDRAW X7 -->
<svg xmlns="http://www.w3.org/2000/svg" xml:space="preserve" width="79.0606mm" height="109.437mm" version="1.1" style="shape-rendering:geometricPrecision; text-rendering:geometricPrecision; image-rendering:optimizeQuality; fill-rule:evenodd; clip-rule:evenodd"
viewBox="0 0 6022 8335"
 xmlns:xlink="http://www.w3.org/1999/xlink">
 <defs>
  <style type="text/css">
   <![CDATA[
    .str10 {stroke:#F5B570;stroke-width:20.1534}
    .str9 {stroke:#F5B570;stroke-width:26.8713}
    .str1 {stroke:#373435;stroke-width:13.4356}
    .str4 {stroke:#373435;stroke-width:13.4356}
    .str7 {stroke:#D4A16F;stroke-width:13.4356}
    .str0 {stroke:#D4A16F;stroke-width:13.4356}
    .str2 {stroke:#00AFEF;stroke-width:13.4356}
    .str6 {stroke:#F5B570;stroke-width:5.80383}
    .str5 {stroke:#FFC485;stroke-width:5.80383}
    .str3 {stroke:#373435;stroke-width:13.4356;stroke-linecap:round;stroke-linejoin:round}
    .str8 {stroke:#00AFEF;stroke-width:13.4356;stroke-linecap:round;stroke-linejoin:round}
    .fil1 {fill:none}
    .fil6 {fill:#FEFEFE}
    .fil8 {fill:#A9ABAE}
    .fil7 {fill:#4B4B4D}
    .fil4 {fill:#373435}
    .fil13 {fill:#414242}
    .fil14 {fill:#414242}
    .fil5 {fill:#345DA5}
    .fil3 {fill:#0768AE}
    .fil10 {fill:#F5B570}
    .fil11 {fill:#FFB566}
    .fil12 {fill:#FFB566}
    .fil9 {fill:#FFC485}
    .fil0 {fill:#FFC485}
    .fil2 {fill:#FFCD96}
    .fil15 {fill:white}
   ]]>
  </style>
   <clipPath id="id0">
    <rect x="2427" y="4036" width="443" height="480"/>
   </clipPath>
   <clipPath id="id1">
    <path d="M2427 4516l443 0 0 -480 -443 0 0 480z"/>
   </clipPath>
   <clipPath id="id2">
    <rect x="2427" y="4036" width="443" height="480"/>
   </clipPath>
 </defs>
 <g id="Capa_x0020_1">
  <metadata id="CorelCorpID_0Corel-Layer"/>
  <path class="fil0 str0" d="M3832 3179c-287,102 -555,250 -803,454l115 653c226,-112 453,-279 680,-527 455,-221 860,-412 1108,-625 132,-19 255,-19 367,0 119,37 206,15 264,-64 -8,-38 3,-58 29,-64 110,-6 121,-85 50,-132l-90 -79c-28,-31 -12,-61 51,-89l382 -122c55,-26 31,-97 -43,-89 -163,14 -322,45 -476,102l-218 77 -442 173 -424 134 -550 198z"/>
  <path class="fil1 str0" d="M5578 3011c-29,-24 -240,-54 -301,-6 -25,19 -15,15 -46,34 -63,40 -191,16 -243,-44 -7,-9 -10,-14 -18,-24"/>
  <path class="fil1 str0" d="M5241 2770c57,0 333,47 380,89 1,1 3,2 5,1"/>
  <path class="fil1 str0" d="M5231 3039c-19,36 64,68 89,57"/>
  <path class="fil1 str0" d="M5370 3150c-25,2 -103,-64 -5,-102 33,-13 195,-26 206,-37"/>
  <polygon class="fil2" points="2802,3335 1429,3375 2104,4084 "/>
  <path class="fil3" d="M1016 5630c72,655 19,1410 -10,2071 -16,341 662,160 714,215 16,17 407,215 397,-163 -3,-118 -72,-855 -29,-1335 6,-60 112,82 86,732 -3,66 46,753 140,753 388,0 920,228 901,-242 -8,-185 97,-60 -25,-529 -51,-199 16,-1430 -38,-1407 -159,68 -56,145 -661,145 -556,0 -1128,124 -1475,-240z"/>
  <path class="fil4" d="M1029 5643c724,65 1438,59 2144,0l0 236c-715,68 -1421,75 -2136,0l-8 -236z"/>
  <polygon class="fil3" points="1287,5663 1330,5666 1330,5904 1287,5904 "/>
  <polygon class="fil3" points="2909,5668 2866,5671 2866,5909 2909,5909 "/>
  <polygon class="fil3" points="2435,5683 2392,5686 2392,5924 2435,5924 "/>
  <polygon class="fil3" points="1788,5686 1746,5685 1745,5925 1788,5925 "/>
  <path class="fil5" d="M2796 7776c204,-95 270,-213 312,-431 7,-37 18,-418 18,-357 0,175 63,806 -75,889 -107,65 -237,-94 -264,-56 -12,18 -159,-2 -165,-50 -8,-2 -9,-43 100,2 8,3 63,8 74,3z"/>
  <polygon class="fil5" points="2004,6397 1755,6246 1896,6125 2075,6379 2049,6783 "/>
  <polygon class="fil5" points="2232,6808 2474,6472 2287,6820 2284,6967 2200,7265 2216,6936 "/>
  <polygon class="fil5" points="2869,7191 2412,7205 2802,7138 3090,6859 "/>
  <polygon class="fil5" points="3131,5905 2931,5920 2971,6199 3082,6343 3109,6793 3144,6209 "/>
  <polygon class="fil5" points="1352,6989 1097,6891 1072,7233 1262,7115 1668,7188 "/>
  <path class="fil5" d="M2057 7436c19,76 32,475 -72,480 -239,11 -170,-45 -326,-82 -75,-17 -202,40 -355,-16 -27,-10 227,-11 277,-25 143,-42 312,103 347,-44 30,-127 93,-5 76,-267 -2,-40 48,0 48,-110 0,25 3,56 5,64z"/>
  <path class="fil5" d="M2160 6382c12,-9 136,-272 147,-146 1,15 -114,97 -129,220 -19,154 3,69 -23,-57 0,-3 0,-14 5,-17z"/>
  <path class="fil4 str1" d="M2092 7898c3,135 9,256 -15,384 -10,54 -234,-4 -294,44 -20,16 -403,-56 -530,-11 -103,36 -431,13 -426,-210 5,-227 149,-314 330,-326 138,-9 269,41 415,74 144,33 180,37 324,5 64,-14 168,-41 187,27 2,7 9,6 9,13z"/>
  <path class="fil4 str1" d="M2257 7898c-2,135 -8,256 15,384 9,54 225,-4 283,44 20,16 388,-56 511,-11 99,36 414,13 410,-210 -5,-227 -144,-314 -318,-326 -133,-9 -259,41 -399,74 -139,33 -175,37 -313,5 -61,-14 -162,-41 -180,27 -2,7 -8,6 -9,13z"/>
  <path class="fil1 str2" d="M1239 3434c175,209 387,356 628,453"/>
  <path class="fil1 str2" d="M3005 3471c-189,189 -406,326 -658,395"/>
  <path class="fil6 str2" d="M489 3883c147,-23 343,-415 610,-495l329 -119c108,195 146,278 450,364 86,134 86,222 204,275 128,-72 81,-168 207,-269 334,-138 455,-212 495,-344 65,-77 725,-43 794,-29 -65,231 -5,458 115,684l140 353c-266,54 -528,47 -784,-41 149,464 213,747 124,1381 -284,54 -1763,79 -2144,0 -99,-587 -88,-701 110,-1436 -68,260 -330,683 -624,562 22,-107 -80,-779 -26,-886 12,-119 -51,56 0,0z"/>
  <g style="clip-path:url(#id0)">
  </g>
  <g style="clip-path:url(#id1)">
   <image x="2427" y="4036" width="443" height="480" xlink:href="jaime_cuerpo_Images\jaime_cuerpo_ImgID1.png"/>
  </g>
  <g style="clip-path:url(#id2)">
  </g>
  <path class="fil1 str2" d="M3364 3487c0,115 -7,160 32,269 44,122 174,405 186,503 1,8 19,69 23,75"/>
  <path class="fil1 str2" d="M3833 4303c42,-140 26,-370 -55,-478"/>
  <path class="fil2" d="M3087 1691c-42,189 11,430 35,611 8,64 108,143 163,58 54,-84 97,-107 11,-251 -147,-249 -10,-292 -6,-498 1,-24 -149,-167 -203,80z"/>
  <path class="fil2" d="M1157 3083c291,399 492,599 1183,518 255,-30 787,-525 819,-777 29,-229 97,-437 -64,-869 -34,-91 -34,-1046 -100,-1167 -153,-283 -70,-355 -669,-361 -627,-5 -859,67 -1264,468 -222,219 -95,1447 -72,1768 11,152 97,324 167,420z"/>
  <path class="fil4 str3" d="M688 882c383,-51 496,164 873,-235 165,-174 994,-261 1206,-139 173,100 272,-222 -252,-414 -267,-97 -123,-71 -421,-85 -234,-11 -286,21 -515,45 -149,15 -620,337 -735,536 -16,28 -132,300 -156,292z"/>
  <path class="fil4" d="M2907 457c211,141 153,168 263,341 50,79 127,522 83,651 -55,159 -123,183 -147,318 -20,114 -71,-52 -70,-80 24,-561 33,-566 -187,-1063 -28,-63 -3,-207 58,-167z"/>
  <path class="fil4 str4" d="M1016 1708c16,-218 -70,-370 64,-630 149,-291 37,-176 -268,-202 -95,-9 -64,481 -23,614 33,105 205,518 227,218z"/>
  <path class="fil2" d="M972 1817c59,185 28,429 21,612 -2,64 -95,151 -158,71 -62,-80 -107,-99 -35,-250 125,-259 -15,-292 -39,-496 -3,-24 134,-178 211,63z"/>
  <path class="fil4 str4" d="M2289 1449c65,-25 136,-28 197,-64 25,-15 153,-23 233,-78 27,-18 206,56 196,199 -3,47 -2,2 -84,-25 -46,-15 -68,-62 -122,-33 -20,11 -394,-9 -420,1z"/>
  <path class="fil4 str4" d="M1823 1502c-61,-29 -129,-38 -186,-77 -22,-16 -146,-34 -219,-94 -24,-20 -202,39 -204,179 0,46 3,2 83,-18 46,-11 71,-55 121,-22 18,12 380,20 405,32z"/>
  <path class="fil7" d="M1281 1380c-9,0 10,-8 16,-14 14,-13 51,-27 69,-32 31,-9 42,0 69,12 14,6 106,53 110,54 11,1 20,6 38,7 13,0 82,30 97,38 26,15 44,18 70,28 24,8 13,10 23,16 4,2 4,-4 13,3 0,7 -81,-21 -89,-23 -27,-6 -115,-41 -135,-42 -23,-2 -80,-17 -96,-33 -7,-8 -43,-18 -56,-15 -24,7 -14,0 -16,-7 -12,-4 -58,16 -80,20 -12,2 -39,13 -50,18 -30,13 9,-26 13,-30 -1,-2 3,0 4,0z"/>
  <path class="fil6" d="M1340 1694c47,-36 123,-67 140,-80 27,-21 209,-72 237,18 5,16 47,63 -71,83 -69,12 -105,3 -184,12 -5,0 -114,-4 -143,5 -9,3 -3,-20 21,-38z"/>
  <ellipse class="fil4 str1" transform="matrix(-1.57654 0.242645 0.193377 1.9782 1577.91 1652.21)" rx="53" ry="30"/>
  <path class="fil6" d="M2764 1649c-49,-32 -127,-57 -146,-69 -28,-19 -214,-56 -235,36 -4,17 -42,66 78,78 69,6 104,-5 183,-3 6,0 115,-12 144,-5 9,2 1,-20 -24,-37z"/>
  <ellipse class="fil4 str1" transform="matrix(1.58712 0.0790415 -0.0624972 2.00727 2532.86 1626.95)" rx="53" ry="30"/>
  <ellipse class="fil8" transform="matrix(-0.77567 0.119384 0.0951434 0.973291 1602.71 1628.84)" rx="53" ry="30"/>
  <ellipse class="fil8" transform="matrix(0.70049 0.107813 -0.0859219 0.878958 2556.99 1597.29)" rx="53" ry="30"/>
  <path class="fil7" d="M2834 1356c7,0 -8,-8 -12,-13 -11,-11 -40,-25 -54,-31 -24,-9 -34,-3 -56,5 -12,4 -90,35 -93,36 -8,0 -17,3 -31,3 -10,-1 -68,18 -81,24 -22,10 -36,11 -58,17 -20,5 -12,7 -20,11 -3,2 -3,-3 -11,2 0,5 68,-12 74,-12 22,-3 96,-25 111,-25 19,1 66,-7 80,-20 6,-5 36,-11 46,-7 20,7 12,0 14,-5 10,-3 45,17 63,22 10,2 31,13 39,18 24,13 -5,-22 -8,-25 0,-2 -3,0 -3,0z"/>
  <path class="fil9" d="M2498 492c180,-17 285,69 331,202 19,55 104,186 104,244 1,14 45,104 45,210 0,83 10,318 -31,49 -12,-79 -222,-425 -294,-502 -120,-128 -11,-50 -185,-151 -70,-41 -252,-52 -19,-52 16,0 33,1 49,0z"/>
  <path class="fil10" d="M3198 1715c-25,-24 -52,154 -23,223 16,39 -12,144 54,224 12,13 16,78 16,-35 0,-105 -59,-109 -59,-283 0,-25 13,-129 12,-129z"/>
  <path class="fil10" d="M896 1880c-21,91 38,193 -22,389 -5,19 -31,118 29,85 18,-10 45,-133 45,-170 0,-96 2,-117 -25,-210 -14,-46 -39,-41 -27,-94z"/>
  <path class="fil10" d="M2348 2893c12,-8 15,26 24,43 0,0 7,30 -6,32 -60,6 -80,10 -146,10 -43,-1 -92,11 -136,-1 -28,-8 -43,15 -64,-15 -33,4 216,-37 254,-52 4,-2 68,-13 74,-17z"/>
  <path class="fil0 str5" d="M2446 3426c-586,89 -884,-90 -880,-89 197,57 1259,28 1328,-198 5,94 -277,261 -448,287z"/>
  <path class="fil11" d="M2321 3482c-236,20 -353,-3 -351,-3 78,6 504,-10 535,-45 1,14 -115,43 -184,48z"/>
  <path class="fil12" d="M2021 1381c-39,-45 -37,-153 -11,-202 19,-38 -32,34 -31,44 1,8 -85,180 -15,159 5,-1 54,-4 57,-1z"/>
  <path class="fil0" d="M2151 1678c28,45 -48,141 138,288 1,1 117,125 -9,181 -30,13 -218,48 -149,3 44,-28 66,-182 39,-231 -20,-34 -28,-256 -19,-241z"/>
  <path class="fil10" d="M2514 2215c73,26 228,214 252,289 24,72 51,133 34,223 -21,111 -76,146 -111,229 30,9 162,-274 160,-330 -2,-56 35,-53 -30,-152 -27,-40 -174,-161 -195,-220 -23,-65 -179,-73 -117,-47 3,2 5,7 7,8z"/>
  <path class="fil10" d="M1537 2895c-31,-50 -116,-208 -116,-270 0,-168 107,-179 226,-285 49,-43 38,-11 -2,-5 -6,1 -158,108 -173,122 -42,36 -73,45 -82,110 -24,184 49,193 68,235 37,82 126,167 79,93z"/>
  <path class="fil0" d="M2068 1456c61,-4 59,-23 48,-69 -12,-45 -47,-26 -51,-117 0,-5 3,-147 -12,-111 -40,94 -39,131 -5,225 15,43 16,18 19,69l1 3z"/>
  <path class="fil0" d="M2673 1719c82,-17 398,14 398,124 0,1 -126,-67 -178,-76 -71,-13 -137,-46 -211,-46 -4,0 -6,-3 -9,-2z"/>
  <path class="fil0" d="M2753 1588c10,0 106,59 133,68 0,1 155,83 125,39 -3,-4 -151,-45 -200,-88 -8,-6 -44,-19 -58,-19z"/>
  <path class="fil0" d="M1033 1857c3,2 83,-40 112,-44 65,-11 87,-28 168,-27 1,0 139,-5 93,8 -24,6 -170,21 -176,26 0,0 -30,5 -36,9 -1,1 -102,29 -117,38 -6,4 -71,27 -53,-2 3,-4 7,-8 9,-8z"/>
  <path class="fil0" d="M1328 1629c-9,-1 -57,32 -64,42 -5,7 -73,57 -85,64 -14,8 -79,44 -79,8 0,-10 52,-21 68,-33 12,-8 66,-27 88,-42 11,-7 20,-8 30,-19 3,-4 22,-12 26,-14 2,0 15,-6 16,-6z"/>
  <path class="fil10 str6" d="M2178 1609c18,93 15,233 101,294 85,60 179,237 12,294 -30,10 -116,24 -180,30 -50,5 -221,-7 -275,-41 -27,-17 526,137 526,-138 0,-61 -104,-119 -147,-204 -40,-78 -47,-287 -37,-235z"/>
  <path class="fil0 str5" d="M2946 3132c220,-182 220,-659 220,-772 0,-134 -228,-513 -105,-263 99,201 53,713 -58,905 -10,16 -73,143 -57,130z"/>
  <path class="fil0" d="M1072 2257c-85,230 128,791 311,970 2,2 -113,-72 -213,-264 -114,-220 -183,-474 -98,-706z"/>
  <path class="fil12" d="M1333 1822c7,3 91,-13 120,-13 80,0 295,-26 358,-66 -5,-2 -114,59 -153,61 -7,0 -68,14 -83,13 -4,0 -118,19 -153,19 -30,0 -70,8 -95,-9 -6,-4 -7,-10 6,-5z"/>
  <path class="fil12" d="M2577 1734c-53,0 -118,1 -167,-18 0,0 95,35 136,37 23,0 62,8 91,8 54,0 202,17 192,14 -21,-5 -182,-41 -252,-41z"/>
  <path class="fil0" d="M2801 2326c35,12 109,102 120,137 12,35 24,64 16,107 -9,53 -36,70 -53,109 15,5 78,-130 77,-157 -1,-27 16,-26 -15,-73 -13,-19 -83,-77 -93,-105 -11,-31 -85,-34 -55,-22 1,1 2,3 3,4z"/>
  <path class="fil0" d="M1288 2685c-11,-23 -41,-97 -41,-125 0,-79 38,-84 80,-133 17,-20 13,-5 -1,-2 -2,0 -56,50 -61,56 -15,17 -26,21 -29,52 -9,85 17,89 24,109 13,38 45,77 28,43z"/>
  <path class="fil7" d="M3144 806c27,-23 78,350 79,402 2,92 24,233 -46,302 -13,12 -104,58 -58,3 25,-30 59,-132 57,-183 -1,-51 9,-127 7,-198 -1,-62 0,-226 -32,-272 -7,-9 -3,-57 -7,-54z"/>
  <path class="fil13" d="M1886 28c240,50 710,82 879,339 1,1 111,187 85,67 -8,-38 -63,-121 -87,-156 -51,-74 -401,-221 -495,-231 -113,-12 -386,-20 -382,-19z"/>
  <path class="fil14" d="M882 1651c29,9 67,16 86,36 43,43 20,27 20,-40 0,-39 -31,-85 -14,-155 10,-46 -1,-203 13,-237 2,-5 87,-261 45,-166 -30,65 -63,91 -86,151 -29,72 -72,293 -68,369 1,16 -6,38 4,42z"/>
  <path class="fil7" d="M765 823c196,2 338,-53 498,-125 240,-108 338,-289 575,-336 154,-30 488,-62 652,-67 -2,-43 -927,-18 -1073,163 -63,79 -573,338 -652,365z"/>
  <path class="fil2 str7" d="M134 4069c47,-65 108,-117 191,-151 68,-115 98,-240 111,-368 -34,-164 22,-468 193,-309 66,119 69,280 34,455 21,122 29,249 30,378 55,13 99,42 126,96 22,66 9,126 -50,176 57,99 45,186 -35,262 31,75 21,144 -36,206 4,108 -26,195 -105,252 -170,31 -340,20 -509,-40 -34,-65 -49,-136 -46,-212 -29,-100 -39,-206 -25,-317 1,-62 13,-124 40,-186 -1,-89 19,-171 81,-242z"/>
  <path class="fil1 str0" d="M760 4333c-37,16 -331,1 -387,-20 -3,-1 -1,0 -5,-2"/>
  <path class="fil1 str0" d="M734 4608c-77,28 -282,14 -366,-1"/>
  <path class="fil1 str0" d="M698 4814c-126,82 -241,50 -380,50"/>
  <path class="fil1 str0" d="M693 4074c-34,-1 -174,-71 -325,-66 -23,1 -168,2 -177,-4"/>
  <polygon class="fil15 str8" points="1863,3612 1650,3660 2096,3926 "/>
  <polygon class="fil15 str2" points="2095,3921 2212,3595 2457,3634 "/>
  <polygon class="fil6 str2" points="2921,3283 2873,3270 2232,3599 2772,3694 "/>
  <polygon class="fil6 str2" points="1238,3332 1332,3311 1863,3612 1379,3721 "/>
  <path class="fil6" d="M1797 2703l-135 -79c306,29 604,-10 895,-108 -50,60 -113,119 -188,177 -69,40 -149,67 -242,79 -76,3 -124,-6 -175,-18 -54,-10 -106,-25 -155,-51z"/>
  <path class="fil1 str9" d="M1607 2607c139,22 340,13 515,-4 127,-15 238,-39 336,-72 48,-17 90,-38 127,-62"/>
  <path class="fil1 str10" d="M1669 2697c23,-23 55,-22 95,1 104,57 212,89 323,92 108,-5 194,-28 258,-70l136 -126c34,-33 62,-31 88,-12"/>
 </g>
</svg>
