<?xml version="1.0" encoding="UTF-8"?>
<!DOCTYPE svg PUBLIC "-//W3C//DTD SVG 1.1//EN" "http://www.w3.org/Graphics/SVG/1.1/DTD/svg11.dtd">
<!-- Creator: CorelDRAW X7 -->
<svg xmlns="http://www.w3.org/2000/svg" xml:space="preserve" width="107.08mm" height="41.0345mm" version="1.1" style="shape-rendering:geometricPrecision; text-rendering:geometricPrecision; image-rendering:optimizeQuality; fill-rule:evenodd; clip-rule:evenodd"
viewBox="0 0 14024 5374"
 xmlns:xlink="http://www.w3.org/1999/xlink">
 <defs>
  <style type="text/css">
   <![CDATA[
    .fil0 {fill:#63CDF5}
   ]]>
  </style>
 </defs>
 <g id="Capa_x0020_1">
  <metadata id="CorelCorpID_0Corel-Layer"/>
  <path class="fil0" d="M605 3142c-1502,64 158,2663 1046,827 -261,852 1812,949 2038,255 666,1683 4583,807 4237,-674 308,2894 3812,1940 3794,-65 -158,1388 1946,1157 1754,123 776,-140 905,-2246 -775,-2037 -85,-943 -1792,-1180 -2386,-429 165,-1214 -2714,-1779 -2923,-61 -675,-910 -3241,-635 -3326,265 -420,-584 -1832,-232 -1689,388 -1351,-778 -2976,499 -1770,1408z"/>
 </g>
</svg>
